EESchema Schematic File Version 2
LIBS:power
LIBS:device
LIBS:transistors
LIBS:conn
LIBS:linear
LIBS:regul
LIBS:74xx
LIBS:cmos4000
LIBS:adc-dac
LIBS:memory
LIBS:xilinx
LIBS:microcontrollers
LIBS:dsp
LIBS:microchip
LIBS:analog_switches
LIBS:motorola
LIBS:texas
LIBS:intel
LIBS:audio
LIBS:interface
LIBS:digital-audio
LIBS:philips
LIBS:display
LIBS:cypress
LIBS:siliconi
LIBS:opto
LIBS:atmel
LIBS:contrib
LIBS:valves
EELAYER 25 0
EELAYER END
$Descr A4 11693 8268
encoding utf-8
Sheet 1 1
Title ""
Date ""
Rev ""
Comp ""
Comment1 ""
Comment2 ""
Comment3 ""
Comment4 ""
$EndDescr
$Comp
L ATMEGA32-A IC1
U 1 1 5732CB2E
P 4300 3100
F 0 "IC1" H 3450 4980 40  0000 L BNN
F 1 "ATMEGA32-A" H 4750 1150 40  0000 L BNN
F 2 "Local:TQFP-44_10x10mm_Pitch0.8mm" H 4300 3100 30  0001 C CIN
F 3 "" H 4300 3100 60  0000 C CNN
	1    4300 3100
	1    0    0    -1  
$EndComp
$Comp
L Q_NPN_BEC Q1
U 1 1 5732CE45
P 8600 1800
F 0 "Q1" H 8900 1850 50  0000 R CNN
F 1 "SS9013" H 9100 1700 50  0000 R CNN
F 2 "Local:SOT-23" H 8800 1900 29  0001 C CNN
F 3 "" H 8600 1800 60  0000 C CNN
	1    8600 1800
	1    0    0    -1  
$EndComp
$Comp
L R R4
U 1 1 5732CEA7
P 10300 1850
F 0 "R4" V 10380 1850 50  0000 C CNN
F 1 "10K" V 10300 1850 50  0000 C CNN
F 2 "Local:R_0603" V 10230 1850 30  0001 C CNN
F 3 "" H 10300 1850 30  0000 C CNN
	1    10300 1850
	-1   0    0    -1  
$EndComp
$Comp
L R R2
U 1 1 5732CF0A
P 10300 1350
F 0 "R2" V 10380 1350 50  0000 C CNN
F 1 "47K" V 10300 1350 50  0000 C CNN
F 2 "Local:R_0603" V 10230 1350 30  0001 C CNN
F 3 "" H 10300 1350 30  0000 C CNN
	1    10300 1350
	-1   0    0    -1  
$EndComp
Text GLabel 10400 1600 2    47   Input ~ 0
BOOST_SENSE
$Comp
L GND #PWR11
U 1 1 5732CFA3
P 10300 2100
F 0 "#PWR11" H 10300 1850 50  0001 C CNN
F 1 "GND" H 10300 1950 50  0000 C CNN
F 2 "" H 10300 2100 60  0000 C CNN
F 3 "" H 10300 2100 60  0000 C CNN
	1    10300 2100
	1    0    0    -1  
$EndComp
$Comp
L +12V #PWR2
U 1 1 5732CFBF
P 10300 1100
F 0 "#PWR2" H 10300 950 50  0001 C CNN
F 1 "+12V" H 10300 1240 50  0000 C CNN
F 2 "" H 10300 1100 60  0000 C CNN
F 3 "" H 10300 1100 60  0000 C CNN
	1    10300 1100
	1    0    0    -1  
$EndComp
$Comp
L CP C2
U 1 1 5732D0A1
P 9500 1850
F 0 "C2" H 9525 1950 50  0000 L CNN
F 1 "4u7" H 9525 1750 50  0000 L CNN
F 2 "Local:C_0805" H 9538 1700 30  0001 C CNN
F 3 "" H 9500 1850 60  0000 C CNN
	1    9500 1850
	1    0    0    -1  
$EndComp
$Comp
L C C3
U 1 1 5732D105
P 9900 1850
F 0 "C3" H 9925 1950 50  0000 L CNN
F 1 "100n" H 9925 1750 50  0000 L CNN
F 2 "Local:C_0603" H 9938 1700 30  0001 C CNN
F 3 "" H 9900 1850 60  0000 C CNN
	1    9900 1850
	1    0    0    -1  
$EndComp
$Comp
L GND #PWR10
U 1 1 5732D1D5
P 9900 2100
F 0 "#PWR10" H 9900 1850 50  0001 C CNN
F 1 "GND" H 9900 1950 50  0000 C CNN
F 2 "" H 9900 2100 60  0000 C CNN
F 3 "" H 9900 2100 60  0000 C CNN
	1    9900 2100
	1    0    0    -1  
$EndComp
$Comp
L GND #PWR9
U 1 1 5732D1EA
P 9500 2100
F 0 "#PWR9" H 9500 1850 50  0001 C CNN
F 1 "GND" H 9500 1950 50  0000 C CNN
F 2 "" H 9500 2100 60  0000 C CNN
F 3 "" H 9500 2100 60  0000 C CNN
	1    9500 2100
	1    0    0    -1  
$EndComp
$Comp
L +12V #PWR7
U 1 1 5732D205
P 9900 1600
F 0 "#PWR7" H 9900 1450 50  0001 C CNN
F 1 "+12V" H 9900 1740 50  0000 C CNN
F 2 "" H 9900 1600 60  0000 C CNN
F 3 "" H 9900 1600 60  0000 C CNN
	1    9900 1600
	1    0    0    -1  
$EndComp
$Comp
L +12V #PWR6
U 1 1 5732D21A
P 9500 1600
F 0 "#PWR6" H 9500 1450 50  0001 C CNN
F 1 "+12V" H 9500 1740 50  0000 C CNN
F 2 "" H 9500 1600 60  0000 C CNN
F 3 "" H 9500 1600 60  0000 C CNN
	1    9500 1600
	1    0    0    -1  
$EndComp
$Comp
L D D1
U 1 1 5732D357
P 8950 1500
F 0 "D1" H 8950 1600 50  0000 C CNN
F 1 "LL4148" H 8950 1400 50  0000 C CNN
F 2 "Local:MiniMELF_Standard" H 8950 1500 60  0001 C CNN
F 3 "" H 8950 1500 60  0000 C CNN
	1    8950 1500
	-1   0    0    -1  
$EndComp
$Comp
L +12V #PWR4
U 1 1 5732D402
P 9200 1400
F 0 "#PWR4" H 9200 1250 50  0001 C CNN
F 1 "+12V" H 9200 1540 50  0000 C CNN
F 2 "" H 9200 1400 60  0000 C CNN
F 3 "" H 9200 1400 60  0000 C CNN
	1    9200 1400
	1    0    0    -1  
$EndComp
$Comp
L GND #PWR8
U 1 1 5732D4D7
P 8700 2100
F 0 "#PWR8" H 8700 1850 50  0001 C CNN
F 1 "GND" H 8700 1950 50  0000 C CNN
F 2 "" H 8700 2100 60  0000 C CNN
F 3 "" H 8700 2100 60  0000 C CNN
	1    8700 2100
	1    0    0    -1  
$EndComp
$Comp
L R R3
U 1 1 5732D4F7
P 8150 1800
F 0 "R3" V 8230 1800 50  0000 C CNN
F 1 "1K" V 8150 1800 50  0000 C CNN
F 2 "Local:R_0603" V 8080 1800 30  0001 C CNN
F 3 "" H 8150 1800 30  0000 C CNN
	1    8150 1800
	0    1    -1   0   
$EndComp
Text GLabel 7900 1800 0    47   Input ~ 0
BOOST_DRIVE
$Comp
L INDUCTOR_SMALL L1
U 1 1 5732D6F0
P 8350 1500
F 0 "L1" H 8350 1600 50  0000 C CNN
F 1 "1mH" H 8350 1450 50  0000 C CNN
F 2 "Local:IND_D8P5" H 8350 1500 60  0001 C CNN
F 3 "" H 8350 1500 60  0000 C CNN
	1    8350 1500
	1    0    0    -1  
$EndComp
$Comp
L +5V #PWR3
U 1 1 5732D7FD
P 8000 1400
F 0 "#PWR3" H 8000 1250 50  0001 C CNN
F 1 "+5V" H 8000 1540 50  0000 C CNN
F 2 "" H 8000 1400 60  0000 C CNN
F 3 "" H 8000 1400 60  0000 C CNN
	1    8000 1400
	1    0    0    -1  
$EndComp
Text Notes 8750 1100 0    60   ~ 0
5V to 12V boost
$Comp
L Crystal Y1
U 1 1 5732DECE
P 2850 4900
F 0 "Y1" H 2850 5050 50  0000 C CNN
F 1 "16M" H 2850 4750 50  0000 C CNN
F 2 "Local:Crystal_HC49-SD_SMD" H 2850 4900 60  0001 C CNN
F 3 "" H 2850 4900 60  0000 C CNN
	1    2850 4900
	1    0    0    -1  
$EndComp
$Comp
L GND #PWR36
U 1 1 5732DF43
P 2600 5400
F 0 "#PWR36" H 2600 5150 50  0001 C CNN
F 1 "GND" H 2600 5250 50  0000 C CNN
F 2 "" H 2600 5400 60  0000 C CNN
F 3 "" H 2600 5400 60  0000 C CNN
	1    2600 5400
	1    0    0    -1  
$EndComp
$Comp
L C C4
U 1 1 5732DF75
P 2600 5150
F 0 "C4" H 2625 5250 50  0000 L CNN
F 1 "22p" H 2625 5050 50  0000 L CNN
F 2 "Local:C_0603" H 2638 5000 30  0001 C CNN
F 3 "" H 2600 5150 60  0000 C CNN
	1    2600 5150
	1    0    0    -1  
$EndComp
$Comp
L C C5
U 1 1 5732E092
P 3100 5150
F 0 "C5" H 3125 5250 50  0000 L CNN
F 1 "22p" H 3125 5050 50  0000 L CNN
F 2 "Local:C_0603" H 3138 5000 30  0001 C CNN
F 3 "" H 3100 5150 60  0000 C CNN
	1    3100 5150
	1    0    0    -1  
$EndComp
$Comp
L GND #PWR37
U 1 1 5732E10F
P 3100 5400
F 0 "#PWR37" H 3100 5150 50  0001 C CNN
F 1 "GND" H 3100 5250 50  0000 C CNN
F 2 "" H 3100 5400 60  0000 C CNN
F 3 "" H 3100 5400 60  0000 C CNN
	1    3100 5400
	1    0    0    -1  
$EndComp
Text GLabel 2600 4800 1    47   Input ~ 0
XTAL1
Text GLabel 3100 4800 1    47   Input ~ 0
XTAL2
Text GLabel 3200 1800 0    47   Input ~ 0
XTAL1
Text GLabel 3200 2200 0    47   Input ~ 0
XTAL2
$Comp
L GND #PWR33
U 1 1 5732E962
P 4350 5300
F 0 "#PWR33" H 4350 5050 50  0001 C CNN
F 1 "GND" H 4350 5150 50  0000 C CNN
F 2 "" H 4350 5300 60  0000 C CNN
F 3 "" H 4350 5300 60  0000 C CNN
	1    4350 5300
	1    0    0    -1  
$EndComp
$Comp
L +5V #PWR1
U 1 1 5732ECD2
P 4200 900
F 0 "#PWR1" H 4200 750 50  0001 C CNN
F 1 "+5V" H 4200 1040 50  0000 C CNN
F 2 "" H 4200 900 60  0000 C CNN
F 3 "" H 4200 900 60  0000 C CNN
	1    4200 900 
	1    0    0    -1  
$EndComp
$Comp
L C C7
U 1 1 5732EEB6
P 1100 4950
F 0 "C7" H 1125 5050 50  0000 L CNN
F 1 "100n" H 1125 4850 50  0000 L CNN
F 2 "Local:C_0603" H 1138 4800 30  0001 C CNN
F 3 "" H 1100 4950 60  0000 C CNN
	1    1100 4950
	1    0    0    -1  
$EndComp
$Comp
L GND #PWR30
U 1 1 5732EEBC
P 1100 5200
F 0 "#PWR30" H 1100 4950 50  0001 C CNN
F 1 "GND" H 1100 5050 50  0000 C CNN
F 2 "" H 1100 5200 60  0000 C CNN
F 3 "" H 1100 5200 60  0000 C CNN
	1    1100 5200
	1    0    0    -1  
$EndComp
$Comp
L +5V #PWR23
U 1 1 5732EF9A
P 1100 4700
F 0 "#PWR23" H 1100 4550 50  0001 C CNN
F 1 "+5V" H 1100 4840 50  0000 C CNN
F 2 "" H 1100 4700 60  0000 C CNN
F 3 "" H 1100 4700 60  0000 C CNN
	1    1100 4700
	1    0    0    -1  
$EndComp
$Comp
L C C6
U 1 1 5732F0B1
P 800 4950
F 0 "C6" H 825 5050 50  0000 L CNN
F 1 "100n" H 825 4850 50  0000 L CNN
F 2 "Local:C_0603" H 838 4800 30  0001 C CNN
F 3 "" H 800 4950 60  0000 C CNN
	1    800  4950
	1    0    0    -1  
$EndComp
$Comp
L GND #PWR29
U 1 1 5732F0B7
P 800 5200
F 0 "#PWR29" H 800 4950 50  0001 C CNN
F 1 "GND" H 800 5050 50  0000 C CNN
F 2 "" H 800 5200 60  0000 C CNN
F 3 "" H 800 5200 60  0000 C CNN
	1    800  5200
	1    0    0    -1  
$EndComp
$Comp
L +5V #PWR22
U 1 1 5732F0BF
P 800 4700
F 0 "#PWR22" H 800 4550 50  0001 C CNN
F 1 "+5V" H 800 4840 50  0000 C CNN
F 2 "" H 800 4700 60  0000 C CNN
F 3 "" H 800 4700 60  0000 C CNN
	1    800  4700
	1    0    0    -1  
$EndComp
$Comp
L C C9
U 1 1 5732F121
P 1700 4950
F 0 "C9" H 1725 5050 50  0000 L CNN
F 1 "100n" H 1725 4850 50  0000 L CNN
F 2 "Local:C_0603" H 1738 4800 30  0001 C CNN
F 3 "" H 1700 4950 60  0000 C CNN
	1    1700 4950
	1    0    0    -1  
$EndComp
$Comp
L GND #PWR32
U 1 1 5732F127
P 1700 5200
F 0 "#PWR32" H 1700 4950 50  0001 C CNN
F 1 "GND" H 1700 5050 50  0000 C CNN
F 2 "" H 1700 5200 60  0000 C CNN
F 3 "" H 1700 5200 60  0000 C CNN
	1    1700 5200
	1    0    0    -1  
$EndComp
$Comp
L +5V #PWR25
U 1 1 5732F12F
P 1700 4700
F 0 "#PWR25" H 1700 4550 50  0001 C CNN
F 1 "+5V" H 1700 4840 50  0000 C CNN
F 2 "" H 1700 4700 60  0000 C CNN
F 3 "" H 1700 4700 60  0000 C CNN
	1    1700 4700
	1    0    0    -1  
$EndComp
$Comp
L C C8
U 1 1 5732F135
P 1400 4950
F 0 "C8" H 1425 5050 50  0000 L CNN
F 1 "100n" H 1425 4850 50  0000 L CNN
F 2 "Local:C_0603" H 1438 4800 30  0001 C CNN
F 3 "" H 1400 4950 60  0000 C CNN
	1    1400 4950
	1    0    0    -1  
$EndComp
$Comp
L GND #PWR31
U 1 1 5732F13B
P 1400 5200
F 0 "#PWR31" H 1400 4950 50  0001 C CNN
F 1 "GND" H 1400 5050 50  0000 C CNN
F 2 "" H 1400 5200 60  0000 C CNN
F 3 "" H 1400 5200 60  0000 C CNN
	1    1400 5200
	1    0    0    -1  
$EndComp
$Comp
L +5V #PWR24
U 1 1 5732F143
P 1400 4700
F 0 "#PWR24" H 1400 4550 50  0001 C CNN
F 1 "+5V" H 1400 4840 50  0000 C CNN
F 2 "" H 1400 4700 60  0000 C CNN
F 3 "" H 1400 4700 60  0000 C CNN
	1    1400 4700
	1    0    0    -1  
$EndComp
$Comp
L C C1
U 1 1 5732F5EE
P 2100 5150
F 0 "C1" H 2125 5250 50  0000 L CNN
F 1 "100n" H 2125 5050 50  0000 L CNN
F 2 "Local:C_0603" H 2138 5000 30  0001 C CNN
F 3 "" H 2100 5150 60  0000 C CNN
	1    2100 5150
	1    0    0    -1  
$EndComp
$Comp
L GND #PWR35
U 1 1 5732F5F4
P 2100 5400
F 0 "#PWR35" H 2100 5150 50  0001 C CNN
F 1 "GND" H 2100 5250 50  0000 C CNN
F 2 "" H 2100 5400 60  0000 C CNN
F 3 "" H 2100 5400 60  0000 C CNN
	1    2100 5400
	1    0    0    -1  
$EndComp
$Comp
L +5V #PWR21
U 1 1 5732F5FC
P 2100 4400
F 0 "#PWR21" H 2100 4250 50  0001 C CNN
F 1 "+5V" H 2100 4540 50  0000 C CNN
F 2 "" H 2100 4400 60  0000 C CNN
F 3 "" H 2100 4400 60  0000 C CNN
	1    2100 4400
	1    0    0    -1  
$EndComp
$Comp
L R R1
U 1 1 5732F6D9
P 2100 4650
F 0 "R1" V 2180 4650 50  0000 C CNN
F 1 "10K" V 2100 4650 50  0000 C CNN
F 2 "Local:R_0603" V 2030 4650 30  0001 C CNN
F 3 "" H 2100 4650 30  0000 C CNN
	1    2100 4650
	-1   0    0    -1  
$EndComp
Text GLabel 3200 1400 0    47   Input ~ 0
~RESET
Text GLabel 2200 4900 2    47   Input ~ 0
~RESET
$Comp
L USB_OTG P4
U 1 1 5732FF94
P 1000 6400
F 0 "P4" H 1325 6275 50  0000 C CNN
F 1 "USB_OTG" H 1000 6600 50  0000 C CNN
F 2 "Local:USB_Mini-B" V 950 6300 60  0001 C CNN
F 3 "" V 950 6300 60  0000 C CNN
	1    1000 6400
	0    -1   1    0   
$EndComp
$Comp
L GND #PWR45
U 1 1 57330196
P 1400 6700
F 0 "#PWR45" H 1400 6450 50  0001 C CNN
F 1 "GND" H 1400 6550 50  0000 C CNN
F 2 "" H 1400 6700 60  0000 C CNN
F 3 "" H 1400 6700 60  0000 C CNN
	1    1400 6700
	1    0    0    -1  
$EndComp
$Comp
L +5V #PWR40
U 1 1 57330227
P 1400 6100
F 0 "#PWR40" H 1400 5950 50  0001 C CNN
F 1 "+5V" H 1400 6240 50  0000 C CNN
F 2 "" H 1400 6100 60  0000 C CNN
F 3 "" H 1400 6100 60  0000 C CNN
	1    1400 6100
	1    0    0    -1  
$EndComp
$Comp
L CP C12
U 1 1 573305F2
P 3100 7150
F 0 "C12" H 3125 7250 50  0000 L CNN
F 1 "4u7" H 3125 7050 50  0000 L CNN
F 2 "Local:C_0805" H 3138 7000 30  0001 C CNN
F 3 "" H 3100 7150 60  0000 C CNN
	1    3100 7150
	1    0    0    -1  
$EndComp
$Comp
L GND #PWR52
U 1 1 573305F8
P 3100 7400
F 0 "#PWR52" H 3100 7150 50  0001 C CNN
F 1 "GND" H 3100 7250 50  0000 C CNN
F 2 "" H 3100 7400 60  0000 C CNN
F 3 "" H 3100 7400 60  0000 C CNN
	1    3100 7400
	1    0    0    -1  
$EndComp
$Comp
L +5V #PWR46
U 1 1 5733066B
P 3100 6900
F 0 "#PWR46" H 3100 6750 50  0001 C CNN
F 1 "+5V" H 3100 7040 50  0000 C CNN
F 2 "" H 3100 6900 60  0000 C CNN
F 3 "" H 3100 6900 60  0000 C CNN
	1    3100 6900
	1    0    0    -1  
$EndComp
NoConn ~ 1400 6500
$Comp
L C C11
U 1 1 57330B89
P 900 7150
F 0 "C11" H 925 7250 50  0000 L CNN
F 1 "10n" H 925 7050 50  0000 L CNN
F 2 "Local:C_0603" H 938 7000 30  0001 C CNN
F 3 "" H 900 7150 60  0000 C CNN
	1    900  7150
	1    0    0    -1  
$EndComp
$Comp
L R R18
U 1 1 57330D96
P 1200 7150
F 0 "R18" V 1280 7150 50  0000 C CNN
F 1 "1M" V 1200 7150 50  0000 C CNN
F 2 "Local:R_0603" V 1130 7150 30  0001 C CNN
F 3 "" H 1200 7150 30  0000 C CNN
	1    1200 7150
	-1   0    0    -1  
$EndComp
$Comp
L GND #PWR48
U 1 1 57330ECE
P 900 7400
F 0 "#PWR48" H 900 7150 50  0001 C CNN
F 1 "GND" H 900 7250 50  0000 C CNN
F 2 "" H 900 7400 60  0000 C CNN
F 3 "" H 900 7400 60  0000 C CNN
	1    900  7400
	1    0    0    -1  
$EndComp
$Comp
L GND #PWR49
U 1 1 57330F1B
P 1200 7400
F 0 "#PWR49" H 1200 7150 50  0001 C CNN
F 1 "GND" H 1200 7250 50  0000 C CNN
F 2 "" H 1200 7400 60  0000 C CNN
F 3 "" H 1200 7400 60  0000 C CNN
	1    1200 7400
	1    0    0    -1  
$EndComp
$Comp
L ZENERsmall D5
U 1 1 57331329
P 1600 7150
F 0 "D5" H 1600 7250 40  0000 C CNN
F 1 "3V6" H 1600 7050 30  0000 C CNN
F 2 "Local:SOT-23-Z" H 1600 7150 60  0001 C CNN
F 3 "" H 1600 7150 60  0000 C CNN
	1    1600 7150
	0    -1   1    0   
$EndComp
$Comp
L ZENERsmall D6
U 1 1 573313F5
P 1900 7150
F 0 "D6" H 1900 7250 40  0000 C CNN
F 1 "3V6" H 1900 7050 30  0000 C CNN
F 2 "Local:SOT-23-Z" H 1900 7150 60  0001 C CNN
F 3 "" H 1900 7150 60  0000 C CNN
	1    1900 7150
	0    -1   1    0   
$EndComp
$Comp
L GND #PWR50
U 1 1 57331661
P 1600 7400
F 0 "#PWR50" H 1600 7150 50  0001 C CNN
F 1 "GND" H 1600 7250 50  0000 C CNN
F 2 "" H 1600 7400 60  0000 C CNN
F 3 "" H 1600 7400 60  0000 C CNN
	1    1600 7400
	1    0    0    -1  
$EndComp
$Comp
L GND #PWR51
U 1 1 573316B4
P 1900 7400
F 0 "#PWR51" H 1900 7150 50  0001 C CNN
F 1 "GND" H 1900 7250 50  0000 C CNN
F 2 "" H 1900 7400 60  0000 C CNN
F 3 "" H 1900 7400 60  0000 C CNN
	1    1900 7400
	1    0    0    -1  
$EndComp
$Comp
L R R15
U 1 1 57331BFF
P 1900 6350
F 0 "R15" V 1980 6350 50  0000 C CNN
F 1 "2K2" V 1900 6350 50  0000 C CNN
F 2 "Local:R_0603" V 1830 6350 30  0001 C CNN
F 3 "" H 1900 6350 30  0000 C CNN
	1    1900 6350
	-1   0    0    -1  
$EndComp
$Comp
L +5V #PWR41
U 1 1 57331D13
P 1900 6100
F 0 "#PWR41" H 1900 5950 50  0001 C CNN
F 1 "+5V" H 1900 6240 50  0000 C CNN
F 2 "" H 1900 6100 60  0000 C CNN
F 3 "" H 1900 6100 60  0000 C CNN
	1    1900 6100
	1    0    0    -1  
$EndComp
$Comp
L R R17
U 1 1 57331F9D
P 2150 6900
F 0 "R17" V 2230 6900 50  0000 C CNN
F 1 "68" V 2150 6900 50  0000 C CNN
F 2 "Local:R_0603" V 2080 6900 30  0001 C CNN
F 3 "" H 2150 6900 30  0000 C CNN
	1    2150 6900
	0    1    -1   0   
$EndComp
$Comp
L R R16
U 1 1 57332105
P 2150 6600
F 0 "R16" V 2230 6600 50  0000 C CNN
F 1 "68" V 2150 6600 50  0000 C CNN
F 2 "Local:R_0603" V 2080 6600 30  0001 C CNN
F 3 "" H 2150 6600 30  0000 C CNN
	1    2150 6600
	0    1    -1   0   
$EndComp
Text GLabel 2400 6600 2    47   Input ~ 0
USB_DM
Text GLabel 2400 6900 2    47   Input ~ 0
USB_DP
Text Notes 2650 6000 0    47   ~ 0
USB Side
Text GLabel 5400 4300 2    47   Input ~ 0
USB_DP
Text GLabel 5400 4400 2    47   Input ~ 0
USB_DM
$Comp
L Q_PNP_BEC Q3
U 1 1 573339ED
P 9600 4300
F 0 "Q3" H 9900 4350 50  0000 R CNN
F 1 "SS9012" H 10100 4250 50  0000 R CNN
F 2 "Local:SOT-23" H 9800 4400 29  0001 C CNN
F 3 "" H 9600 4300 60  0000 C CNN
	1    9600 4300
	1    0    0    1   
$EndComp
$Comp
L +12V #PWR19
U 1 1 57333B06
P 9700 3800
F 0 "#PWR19" H 9700 3650 50  0001 C CNN
F 1 "+12V" H 9700 3940 50  0000 C CNN
F 2 "" H 9700 3800 60  0000 C CNN
F 3 "" H 9700 3800 60  0000 C CNN
	1    9700 3800
	1    0    0    -1  
$EndComp
$Comp
L R R8
U 1 1 57333B81
P 9300 4050
F 0 "R8" V 9380 4050 50  0000 C CNN
F 1 "10K" V 9300 4050 50  0000 C CNN
F 2 "Local:R_0603" V 9230 4050 30  0001 C CNN
F 3 "" H 9300 4050 30  0000 C CNN
	1    9300 4050
	-1   0    0    -1  
$EndComp
$Comp
L +12V #PWR18
U 1 1 57333CFA
P 9300 3800
F 0 "#PWR18" H 9300 3650 50  0001 C CNN
F 1 "+12V" H 9300 3940 50  0000 C CNN
F 2 "" H 9300 3800 60  0000 C CNN
F 3 "" H 9300 3800 60  0000 C CNN
	1    9300 3800
	1    0    0    -1  
$EndComp
$Comp
L Q_NPN_BEC Q4
U 1 1 57333F8B
P 8700 4600
F 0 "Q4" H 9000 4650 50  0000 R CNN
F 1 "MMBT3904" H 9250 4500 50  0000 R CNN
F 2 "Local:SOT-23" H 8900 4700 29  0001 C CNN
F 3 "" H 8700 4600 60  0000 C CNN
	1    8700 4600
	1    0    0    -1  
$EndComp
$Comp
L R R9
U 1 1 5733414F
P 9050 4300
F 0 "R9" V 9130 4300 50  0000 C CNN
F 1 "1K" V 9050 4300 50  0000 C CNN
F 2 "Local:R_0603" V 8980 4300 30  0001 C CNN
F 3 "" H 9050 4300 30  0000 C CNN
	1    9050 4300
	0    1    -1   0   
$EndComp
$Comp
L R R10
U 1 1 573342BC
P 8250 4600
F 0 "R10" V 8330 4600 50  0000 C CNN
F 1 "1K" V 8250 4600 50  0000 C CNN
F 2 "Local:R_0603" V 8180 4600 30  0001 C CNN
F 3 "" H 8250 4600 30  0000 C CNN
	1    8250 4600
	0    1    -1   0   
$EndComp
Text GLabel 8000 4600 0    47   Input ~ 0
HVP_EN
$Comp
L GND #PWR28
U 1 1 57334646
P 8800 4900
F 0 "#PWR28" H 8800 4650 50  0001 C CNN
F 1 "GND" H 8800 4750 50  0000 C CNN
F 2 "" H 8800 4900 60  0000 C CNN
F 3 "" H 8800 4900 60  0000 C CNN
	1    8800 4900
	1    0    0    -1  
$EndComp
$Comp
L Q_NPN_BEC Q5
U 1 1 573346B1
P 9600 5200
F 0 "Q5" H 9900 5250 50  0000 R CNN
F 1 "SS9013" H 10100 5100 50  0000 R CNN
F 2 "Local:SOT-23" H 9800 5300 29  0001 C CNN
F 3 "" H 9600 5200 60  0000 C CNN
	1    9600 5200
	1    0    0    -1  
$EndComp
$Comp
L R R12
U 1 1 573347A0
P 9150 5200
F 0 "R12" V 9230 5200 50  0000 C CNN
F 1 "1K" V 9150 5200 50  0000 C CNN
F 2 "Local:R_0603" V 9080 5200 30  0001 C CNN
F 3 "" H 9150 5200 30  0000 C CNN
	1    9150 5200
	0    1    -1   0   
$EndComp
$Comp
L GND #PWR38
U 1 1 57334B64
P 9700 5500
F 0 "#PWR38" H 9700 5250 50  0001 C CNN
F 1 "GND" H 9700 5350 50  0000 C CNN
F 2 "" H 9700 5500 60  0000 C CNN
F 3 "" H 9700 5500 60  0000 C CNN
	1    9700 5500
	1    0    0    -1  
$EndComp
Text GLabel 8900 5200 0    47   Input ~ 0
PROG_RESET
$Comp
L R R11
U 1 1 57335175
P 9950 4600
F 0 "R11" V 10030 4600 50  0000 C CNN
F 1 "4K7" V 9950 4600 50  0000 C CNN
F 2 "Local:R_0603" V 9880 4600 30  0001 C CNN
F 3 "" H 9950 4600 30  0000 C CNN
	1    9950 4600
	0    1    -1   0   
$EndComp
Text GLabel 9800 4900 2    47   Input ~ 0
HVSP_RESET
$Comp
L D D4
U 1 1 573356AB
P 10200 3950
F 0 "D4" H 10200 4050 50  0000 C CNN
F 1 "LL4148" H 10200 3850 50  0000 C CNN
F 2 "Local:MiniMELF_Standard" H 10200 3950 60  0001 C CNN
F 3 "" H 10200 3950 60  0000 C CNN
	1    10200 3950
	0    -1   -1   0   
$EndComp
Text GLabel 10300 3700 2    47   Input ~ 0
HVSP_VCC
$Comp
L Q_PNP_BEC Q2
U 1 1 57335FB5
P 10100 3400
F 0 "Q2" H 10400 3450 50  0000 R CNN
F 1 "SS9012" H 10600 3350 50  0000 R CNN
F 2 "Local:SOT-23" H 10300 3500 29  0001 C CNN
F 3 "" H 10100 3400 60  0000 C CNN
	1    10100 3400
	1    0    0    1   
$EndComp
$Comp
L +5V #PWR16
U 1 1 57336084
P 10200 3100
F 0 "#PWR16" H 10200 2950 50  0001 C CNN
F 1 "+5V" H 10200 3240 50  0000 C CNN
F 2 "" H 10200 3100 60  0000 C CNN
F 3 "" H 10200 3100 60  0000 C CNN
	1    10200 3100
	1    0    0    -1  
$EndComp
$Comp
L R R7
U 1 1 573360FE
P 9650 3400
F 0 "R7" V 9730 3400 50  0000 C CNN
F 1 "1K" V 9650 3400 50  0000 C CNN
F 2 "Local:R_0603" V 9580 3400 30  0001 C CNN
F 3 "" H 9650 3400 30  0000 C CNN
	1    9650 3400
	0    1    -1   0   
$EndComp
Text GLabel 9400 3400 0    47   Input ~ 0
HVP_VCC
Text Notes 7400 3050 0    47   ~ 0
HV Prog Reset
Text GLabel 5400 4600 2    47   Input ~ 0
BOOST_DRIVE
Text GLabel 5400 1400 2    47   Input ~ 0
BOOST_SENSE
Text GLabel 5400 4500 2    47   Input ~ 0
HVP_EN
Text GLabel 5400 3200 2    47   Input ~ 0
PROG_RESET
Text GLabel 5400 4700 2    47   Input ~ 0
HVP_VCC
Text GLabel 5400 2400 2    47   Input ~ 0
HVP_SII
Text GLabel 5400 2500 2    47   Input ~ 0
HVP_SDI
Text GLabel 5400 2600 2    47   Input ~ 0
HVP_SDO
Text GLabel 5400 4800 2    47   Input ~ 0
HVP_SCI
Text GLabel 5400 2800 2    47   Input ~ 0
PROG_MOSI
Text GLabel 5400 2900 2    47   Input ~ 0
PROG_MISO
Text GLabel 5400 3000 2    47   Input ~ 0
PROG_SCK
$Comp
L Led_Small D2
U 1 1 5733B51E
P 6300 2100
F 0 "D2" H 6250 2225 50  0000 L CNN
F 1 "blue" H 6200 2000 50  0000 L CNN
F 2 "Local:LED_0603" V 6300 2100 60  0001 C CNN
F 3 "" V 6300 2100 60  0000 C CNN
	1    6300 2100
	0    -1   -1   0   
$EndComp
$Comp
L R R5
U 1 1 5733B65D
P 6300 1750
F 0 "R5" V 6380 1750 50  0000 C CNN
F 1 "1K" V 6300 1750 50  0000 C CNN
F 2 "Local:R_0603" V 6230 1750 30  0001 C CNN
F 3 "" H 6300 1750 30  0000 C CNN
	1    6300 1750
	-1   0    0    -1  
$EndComp
Text GLabel 5400 2100 2    47   Input ~ 0
PROG_LED
Text GLabel 6300 1500 1    47   Input ~ 0
PROG_LED
$Comp
L GND #PWR12
U 1 1 5733BBAE
P 6300 2300
F 0 "#PWR12" H 6300 2050 50  0001 C CNN
F 1 "GND" H 6300 2150 50  0000 C CNN
F 2 "" H 6300 2300 60  0000 C CNN
F 3 "" H 6300 2300 60  0000 C CNN
	1    6300 2300
	1    0    0    -1  
$EndComp
$Comp
L Led_Small D3
U 1 1 5733BD49
P 6700 2100
F 0 "D3" H 6650 2225 50  0000 L CNN
F 1 "red" H 6650 2000 50  0000 L CNN
F 2 "Local:LED_0603" V 6700 2100 60  0001 C CNN
F 3 "" V 6700 2100 60  0000 C CNN
	1    6700 2100
	0    -1   -1   0   
$EndComp
$Comp
L R R6
U 1 1 5733BD4F
P 6700 1750
F 0 "R6" V 6780 1750 50  0000 C CNN
F 1 "1K" V 6700 1750 50  0000 C CNN
F 2 "Local:R_0603" V 6630 1750 30  0001 C CNN
F 3 "" H 6700 1750 30  0000 C CNN
	1    6700 1750
	-1   0    0    -1  
$EndComp
$Comp
L GND #PWR13
U 1 1 5733BD59
P 6700 2300
F 0 "#PWR13" H 6700 2050 50  0001 C CNN
F 1 "GND" H 6700 2150 50  0000 C CNN
F 2 "" H 6700 2300 60  0000 C CNN
F 3 "" H 6700 2300 60  0000 C CNN
	1    6700 2300
	1    0    0    -1  
$EndComp
$Comp
L +5V #PWR5
U 1 1 5733BE85
P 6700 1500
F 0 "#PWR5" H 6700 1350 50  0001 C CNN
F 1 "+5V" H 6700 1640 50  0000 C CNN
F 2 "" H 6700 1500 60  0000 C CNN
F 3 "" H 6700 1500 60  0000 C CNN
	1    6700 1500
	1    0    0    -1  
$EndComp
$Comp
L CONN_02X04 P5
U 1 1 5733CC9D
P 4550 6050
F 0 "P5" H 4550 6300 50  0000 C CNN
F 1 "HVSP" H 4550 5800 50  0000 C CNN
F 2 "Local:Pin_Header_Straight_2x04" H 4550 4850 60  0001 C CNN
F 3 "" H 4550 4850 60  0000 C CNN
	1    4550 6050
	1    0    0    -1  
$EndComp
Text GLabel 4200 5900 0    47   Input ~ 0
HVSP_RESET
Text GLabel 4200 6000 0    47   Input ~ 0
HVSP_VCC
Text GLabel 4900 5900 2    47   Input ~ 0
HVP_SDI
Text GLabel 4900 6000 2    47   Input ~ 0
HVP_SDO
Text GLabel 4900 6100 2    47   Input ~ 0
HVP_SCI
Text GLabel 4900 6200 2    47   Input ~ 0
HVP_SII
$Comp
L GND #PWR42
U 1 1 5733D809
P 4200 6300
F 0 "#PWR42" H 4200 6050 50  0001 C CNN
F 1 "GND" H 4200 6150 50  0000 C CNN
F 2 "" H 4200 6300 60  0000 C CNN
F 3 "" H 4200 6300 60  0000 C CNN
	1    4200 6300
	1    0    0    -1  
$EndComp
Text Notes 4300 5700 0    47   ~ 0
SERIAL HV PROG
NoConn ~ 4200 6100
Wire Wire Line
	10300 1500 10300 1700
Wire Wire Line
	10300 1600 10400 1600
Connection ~ 10300 1600
Wire Wire Line
	10300 1200 10300 1100
Wire Wire Line
	10300 2000 10300 2100
Wire Wire Line
	9900 2000 9900 2100
Wire Wire Line
	9500 2000 9500 2100
Wire Wire Line
	9900 1700 9900 1600
Wire Wire Line
	9500 1700 9500 1600
Wire Wire Line
	9200 1500 9200 1400
Wire Wire Line
	9100 1500 9200 1500
Wire Wire Line
	8600 1500 8800 1500
Wire Wire Line
	8700 1500 8700 1600
Wire Wire Line
	8700 2000 8700 2100
Wire Wire Line
	8400 1800 8300 1800
Wire Wire Line
	8000 1800 7900 1800
Connection ~ 8700 1500
Wire Wire Line
	8100 1500 8000 1500
Wire Wire Line
	8000 1500 8000 1400
Wire Notes Line
	7200 2400 11000 2400
Wire Notes Line
	11000 2400 11000 800 
Wire Notes Line
	11000 800  7200 800 
Wire Notes Line
	7200 800  7200 2400
Wire Wire Line
	3100 5300 3100 5400
Wire Wire Line
	2600 5300 2600 5400
Wire Wire Line
	2600 4800 2600 5000
Wire Wire Line
	2600 4900 2700 4900
Wire Wire Line
	3000 4900 3100 4900
Wire Wire Line
	3100 4800 3100 5000
Connection ~ 2600 4900
Connection ~ 3100 4900
Wire Wire Line
	3300 1800 3200 1800
Wire Wire Line
	3300 2200 3200 2200
Wire Wire Line
	3300 2600 3200 2600
Wire Wire Line
	4150 5100 4150 5200
Wire Wire Line
	4250 5100 4250 5200
Wire Wire Line
	4350 5100 4350 5300
Wire Wire Line
	4450 5200 4450 5100
Wire Wire Line
	4150 5200 4450 5200
Connection ~ 4250 5200
Connection ~ 4350 5200
Wire Wire Line
	4000 1100 4000 1000
Wire Wire Line
	4000 1000 4400 1000
Wire Wire Line
	4100 1000 4100 1100
Wire Wire Line
	4200 900  4200 1100
Connection ~ 4100 1000
Wire Wire Line
	4400 1000 4400 1100
Connection ~ 4200 1000
Wire Wire Line
	1100 5100 1100 5200
Wire Wire Line
	1100 4800 1100 4700
Wire Wire Line
	800  5100 800  5200
Wire Wire Line
	800  4800 800  4700
Wire Wire Line
	1700 5100 1700 5200
Wire Wire Line
	1700 4800 1700 4700
Wire Wire Line
	1400 5100 1400 5200
Wire Wire Line
	1400 4800 1400 4700
Wire Wire Line
	2100 5300 2100 5400
Wire Wire Line
	2100 4800 2100 5000
Wire Wire Line
	2100 4400 2100 4500
Wire Wire Line
	2100 4900 2200 4900
Connection ~ 2100 4900
Wire Wire Line
	3300 1400 3200 1400
Wire Wire Line
	5300 3000 5400 3000
Wire Wire Line
	1300 6600 1400 6600
Wire Wire Line
	1400 6600 1400 6700
Wire Wire Line
	1300 6200 1400 6200
Wire Wire Line
	1400 6200 1400 6100
Wire Wire Line
	3100 7300 3100 7400
Wire Wire Line
	3100 7000 3100 6900
Wire Wire Line
	1300 6300 1700 6300
Wire Wire Line
	1300 6400 1600 6400
Wire Wire Line
	1300 6500 1400 6500
Wire Wire Line
	900  6800 900  7000
Wire Wire Line
	900  6900 1400 6900
Connection ~ 900  6900
Wire Wire Line
	1200 6900 1200 7000
Wire Wire Line
	1200 7300 1200 7400
Wire Wire Line
	900  7300 900  7400
Wire Wire Line
	1600 6400 1600 7050
Wire Wire Line
	1600 7250 1600 7400
Wire Wire Line
	1900 7250 1900 7400
Wire Wire Line
	1900 6500 1900 7050
Wire Wire Line
	2000 6900 1600 6900
Connection ~ 1600 6900
Wire Wire Line
	1700 6300 1700 6600
Wire Wire Line
	1700 6600 2000 6600
Connection ~ 1900 6600
Wire Wire Line
	1900 6200 1900 6100
Wire Wire Line
	2300 6900 2400 6900
Wire Wire Line
	2300 6600 2400 6600
Wire Wire Line
	5300 4300 5400 4300
Wire Wire Line
	5300 4400 5400 4400
Wire Wire Line
	9700 4100 9700 3800
Wire Wire Line
	9200 4300 9400 4300
Wire Wire Line
	9300 4300 9300 4200
Wire Wire Line
	9300 3800 9300 3900
Connection ~ 9300 4300
Wire Wire Line
	8900 4300 8800 4300
Wire Wire Line
	8800 4300 8800 4400
Wire Wire Line
	8500 4600 8400 4600
Wire Wire Line
	8100 4600 8000 4600
Wire Wire Line
	8800 4800 8800 4900
Wire Wire Line
	9000 5200 8900 5200
Wire Wire Line
	9400 5200 9300 5200
Wire Wire Line
	9700 4500 9700 5000
Wire Wire Line
	9700 5400 9700 5500
Wire Wire Line
	9800 4600 9700 4600
Connection ~ 9700 4600
Wire Wire Line
	9700 4900 9800 4900
Connection ~ 9700 4900
Wire Wire Line
	10200 3600 10200 3800
Wire Wire Line
	10200 4100 10200 4600
Wire Wire Line
	10200 4600 10100 4600
Wire Wire Line
	9900 3400 9800 3400
Wire Wire Line
	10200 3200 10200 3100
Wire Wire Line
	9500 3400 9400 3400
Wire Wire Line
	10300 3700 10200 3700
Connection ~ 10200 3700
Wire Notes Line
	11000 2800 11000 5800
Wire Notes Line
	11000 5800 7200 5800
Wire Notes Line
	7200 5800 7200 2800
Wire Notes Line
	7200 2800 11000 2800
Wire Wire Line
	5300 4600 5400 4600
Wire Wire Line
	5300 1400 5400 1400
Wire Wire Line
	5400 4500 5300 4500
Wire Wire Line
	5400 3200 5300 3200
Wire Wire Line
	5300 4700 5400 4700
Wire Wire Line
	5400 2400 5300 2400
Wire Wire Line
	5400 2500 5300 2500
Wire Wire Line
	5400 2600 5300 2600
Wire Wire Line
	5400 4800 5300 4800
Wire Wire Line
	5300 3500 5400 3500
Wire Wire Line
	5300 3600 5400 3600
Wire Wire Line
	5300 3700 5400 3700
Wire Wire Line
	5300 3800 5400 3800
Wire Wire Line
	5300 2100 5400 2100
Wire Wire Line
	5300 2000 5400 2000
Wire Wire Line
	6300 1900 6300 2000
Wire Wire Line
	6300 2200 6300 2300
Wire Wire Line
	6300 1600 6300 1500
Wire Wire Line
	6700 1900 6700 2000
Wire Wire Line
	6700 2200 6700 2300
Wire Wire Line
	6700 1600 6700 1500
Wire Wire Line
	4300 5900 4200 5900
Wire Wire Line
	4900 5900 4800 5900
Wire Wire Line
	4900 6000 4800 6000
Wire Wire Line
	4900 6100 4800 6100
Wire Wire Line
	4900 6200 4800 6200
Wire Wire Line
	4300 6200 4200 6200
Wire Wire Line
	4200 6200 4200 6300
Wire Wire Line
	4300 6000 4200 6000
Wire Wire Line
	4300 6100 4200 6100
Wire Wire Line
	5300 4100 5400 4100
Wire Wire Line
	5300 4200 5400 4200
Text GLabel 5400 4100 2    47   Input ~ 0
RXD
Text GLabel 5400 4200 2    47   Input ~ 0
TXD
Wire Wire Line
	5300 3900 5400 3900
Wire Wire Line
	5300 2900 5400 2900
Wire Wire Line
	5300 2800 5400 2800
Wire Wire Line
	5300 2700 5400 2700
Wire Wire Line
	5300 1500 5400 1500
Wire Wire Line
	5300 1600 5400 1600
Wire Wire Line
	5300 1700 5400 1700
Wire Wire Line
	5300 1800 5400 1800
Wire Wire Line
	5300 1900 5400 1900
Wire Wire Line
	5300 2300 5400 2300
Wire Wire Line
	5300 3300 5400 3300
Wire Wire Line
	5300 3400 5400 3400
$Comp
L VCC #PWR34
U 1 1 5733F3D8
P 6400 5300
F 0 "#PWR34" H 6400 5150 50  0001 C CNN
F 1 "VCC" H 6400 5450 50  0000 C CNN
F 2 "" H 6400 5300 60  0000 C CNN
F 3 "" H 6400 5300 60  0000 C CNN
	1    6400 5300
	1    0    0    -1  
$EndComp
$Comp
L GND #PWR43
U 1 1 5733F597
P 6400 6300
F 0 "#PWR43" H 6400 6050 50  0001 C CNN
F 1 "GND" H 6400 6150 50  0000 C CNN
F 2 "" H 6400 6300 60  0000 C CNN
F 3 "" H 6400 6300 60  0000 C CNN
	1    6400 6300
	1    0    0    -1  
$EndComp
$Comp
L R R13
U 1 1 5733F6AB
P 6400 5550
F 0 "R13" V 6480 5550 50  0000 C CNN
F 1 "33K" V 6400 5550 50  0000 C CNN
F 2 "Local:R_0603" V 6330 5550 30  0001 C CNN
F 3 "" H 6400 5550 30  0000 C CNN
	1    6400 5550
	-1   0    0    -1  
$EndComp
$Comp
L R R14
U 1 1 5733F92E
P 6400 6050
F 0 "R14" V 6480 6050 50  0000 C CNN
F 1 "22K" V 6400 6050 50  0000 C CNN
F 2 "Local:R_0603" V 6330 6050 30  0001 C CNN
F 3 "" H 6400 6050 30  0000 C CNN
	1    6400 6050
	-1   0    0    -1  
$EndComp
Wire Wire Line
	6400 6300 6400 6200
Wire Wire Line
	6400 5700 6400 5900
Wire Wire Line
	6400 5400 6400 5300
Wire Wire Line
	6400 5800 6300 5800
Connection ~ 6400 5800
$Comp
L VCC #PWR39
U 1 1 5733FD8B
P 6800 5800
F 0 "#PWR39" H 6800 5650 50  0001 C CNN
F 1 "VCC" H 6800 5950 50  0000 C CNN
F 2 "" H 6800 5800 60  0000 C CNN
F 3 "" H 6800 5800 60  0000 C CNN
	1    6800 5800
	1    0    0    -1  
$EndComp
$Comp
L C C10
U 1 1 5733FF58
P 6800 6050
F 0 "C10" H 6825 6150 50  0000 L CNN
F 1 "100n" H 6825 5950 50  0000 L CNN
F 2 "Local:C_0603" H 6838 5900 30  0001 C CNN
F 3 "" H 6800 6050 60  0000 C CNN
	1    6800 6050
	1    0    0    -1  
$EndComp
$Comp
L GND #PWR44
U 1 1 5734016E
P 6800 6300
F 0 "#PWR44" H 6800 6050 50  0001 C CNN
F 1 "GND" H 6800 6150 50  0000 C CNN
F 2 "" H 6800 6300 60  0000 C CNN
F 3 "" H 6800 6300 60  0000 C CNN
	1    6800 6300
	1    0    0    -1  
$EndComp
Wire Wire Line
	6800 6300 6800 6200
Wire Wire Line
	6800 5900 6800 5800
Text GLabel 6300 5800 0    47   Input ~ 0
VCC_SENSE
Text GLabel 5400 1500 2    47   Input ~ 0
VCC_SENSE
$Comp
L VCC #PWR26
U 1 1 57340D14
P 6300 4700
F 0 "#PWR26" H 6300 4550 50  0001 C CNN
F 1 "VCC" H 6300 4850 50  0000 C CNN
F 2 "" H 6300 4700 60  0000 C CNN
F 3 "" H 6300 4700 60  0000 C CNN
	1    6300 4700
	1    0    0    -1  
$EndComp
$Comp
L +5V #PWR27
U 1 1 57340DA9
P 6500 4700
F 0 "#PWR27" H 6500 4550 50  0001 C CNN
F 1 "+5V" H 6500 4840 50  0000 C CNN
F 2 "" H 6500 4700 60  0000 C CNN
F 3 "" H 6500 4700 60  0000 C CNN
	1    6500 4700
	1    0    0    -1  
$EndComp
$Comp
L CONN_01X02 P3
U 1 1 57340E12
P 6800 4850
F 0 "P3" H 6800 5000 50  0000 C CNN
F 1 "ISP_SUP" V 6900 4850 50  0000 C CNN
F 2 "Local:Pin_Header_Straight_1x02" H 6800 4850 60  0001 C CNN
F 3 "" H 6800 4850 60  0000 C CNN
	1    6800 4850
	1    0    0    -1  
$EndComp
Wire Wire Line
	6600 4800 6500 4800
Wire Wire Line
	6500 4800 6500 4700
Wire Wire Line
	6600 4900 6300 4900
Wire Wire Line
	6300 4900 6300 4700
$Comp
L CONN_01X02 P2
U 1 1 57341385
P 6800 3950
F 0 "P2" H 6800 4100 50  0000 C CNN
F 1 "SLOW" V 6900 3950 50  0000 C CNN
F 2 "Local:Pin_Header_Straight_1x02" H 6800 3950 60  0001 C CNN
F 3 "" H 6800 3950 60  0000 C CNN
	1    6800 3950
	1    0    0    1   
$EndComp
$Comp
L GND #PWR20
U 1 1 573414E0
P 6500 4100
F 0 "#PWR20" H 6500 3850 50  0001 C CNN
F 1 "GND" H 6500 3950 50  0000 C CNN
F 2 "" H 6500 4100 60  0000 C CNN
F 3 "" H 6500 4100 60  0000 C CNN
	1    6500 4100
	1    0    0    -1  
$EndComp
Wire Wire Line
	6600 4000 6500 4000
Wire Wire Line
	6500 4000 6500 4100
Wire Wire Line
	6600 3900 6500 3900
Text GLabel 6500 3900 0    47   Input ~ 0
SLOW_SCK
Text GLabel 5400 3600 2    47   Input ~ 0
SLOW_SCK
$Comp
L CONN_01X04 P1
U 1 1 573427B3
P 6700 3150
F 0 "P1" H 6700 3400 50  0000 C CNN
F 1 "DBG_UART" V 6800 3150 50  0000 C CNN
F 2 "Local:Pin_Header_Straight_1x04" H 6700 3150 60  0001 C CNN
F 3 "" H 6700 3150 60  0000 C CNN
	1    6700 3150
	1    0    0    1   
$EndComp
$Comp
L GND #PWR17
U 1 1 573428A4
P 6400 3400
F 0 "#PWR17" H 6400 3150 50  0001 C CNN
F 1 "GND" H 6400 3250 50  0000 C CNN
F 2 "" H 6400 3400 60  0000 C CNN
F 3 "" H 6400 3400 60  0000 C CNN
	1    6400 3400
	1    0    0    -1  
$EndComp
$Comp
L +5V #PWR15
U 1 1 57342942
P 6400 2900
F 0 "#PWR15" H 6400 2750 50  0001 C CNN
F 1 "+5V" H 6400 3040 50  0000 C CNN
F 2 "" H 6400 2900 60  0000 C CNN
F 3 "" H 6400 2900 60  0000 C CNN
	1    6400 2900
	1    0    0    -1  
$EndComp
Wire Wire Line
	6500 3300 6400 3300
Wire Wire Line
	6400 3300 6400 3400
Wire Wire Line
	6500 3200 6400 3200
Wire Wire Line
	6500 3100 6400 3100
Wire Wire Line
	6500 3000 6400 3000
Wire Wire Line
	6400 3000 6400 2900
Text GLabel 6400 3100 0    47   Input ~ 0
RXD
Text GLabel 6400 3200 0    47   Input ~ 0
TXD
NoConn ~ 5400 1600
NoConn ~ 5400 1800
NoConn ~ 5400 1900
NoConn ~ 5400 2000
NoConn ~ 5400 2700
NoConn ~ 5400 3300
NoConn ~ 5400 3400
NoConn ~ 5400 3500
NoConn ~ 5400 3700
NoConn ~ 5400 3800
NoConn ~ 5400 3900
Wire Notes Line
	700  7700 3400 7700
Wire Notes Line
	3400 7700 3400 5800
Wire Notes Line
	3400 5800 700  5800
Wire Notes Line
	700  5800 700  7700
$Comp
L AVR-ISP-6 P6
U 1 1 57346976
P 5750 7200
F 0 "P6" H 5645 7440 50  0000 C CNN
F 1 "AVR-ISP-6" H 5485 6970 50  0000 L BNN
F 2 "Local:Pin_Header_Straight_2x03" V 5230 7240 50  0001 C CNN
F 3 "" H 5725 7200 60  0000 C CNN
	1    5750 7200
	1    0    0    -1  
$EndComp
Text GLabel 5300 7300 0    47   Input ~ 0
ISP_RESET
Text GLabel 6200 7200 2    47   Input ~ 0
PROG_MOSI
Text GLabel 5300 7100 0    47   Input ~ 0
PROG_MISO
Text GLabel 5300 7200 0    47   Input ~ 0
PROG_SCK
Wire Wire Line
	5850 7300 6200 7300
Wire Wire Line
	6200 7300 6200 7400
$Comp
L GND #PWR53
U 1 1 57346F4D
P 6200 7400
F 0 "#PWR53" H 6200 7150 50  0001 C CNN
F 1 "GND" H 6200 7250 50  0000 C CNN
F 2 "" H 6200 7400 60  0000 C CNN
F 3 "" H 6200 7400 60  0000 C CNN
	1    6200 7400
	1    0    0    -1  
$EndComp
Wire Wire Line
	5850 7100 6200 7100
Wire Wire Line
	6200 7100 6200 7000
$Comp
L VCC #PWR47
U 1 1 57347242
P 6200 7000
F 0 "#PWR47" H 6200 6850 50  0001 C CNN
F 1 "VCC" H 6200 7150 50  0000 C CNN
F 2 "" H 6200 7000 60  0000 C CNN
F 3 "" H 6200 7000 60  0000 C CNN
	1    6200 7000
	1    0    0    -1  
$EndComp
Wire Wire Line
	6200 7200 5850 7200
Wire Wire Line
	5600 7100 5300 7100
Wire Wire Line
	5600 7200 5300 7200
Wire Wire Line
	5600 7300 5300 7300
Text Notes 5400 6800 0    47   ~ 0
ISP SERIAL PROG
Wire Notes Line
	4600 7700 6800 7700
Wire Notes Line
	6800 7700 6800 6700
Wire Notes Line
	6800 6700 4600 6700
Wire Notes Line
	4600 6700 4600 7700
Wire Notes Line
	3600 5600 5400 5600
Wire Notes Line
	5400 5600 5400 6600
Wire Notes Line
	5400 6600 3600 6600
Wire Notes Line
	3600 6600 3600 5600
Text GLabel 1400 7000 3    47   Input ~ 0
USB_SHIELD
Wire Wire Line
	1400 6900 1400 7000
Connection ~ 1200 6900
$Comp
L CONN_01X03 P7
U 1 1 5734ED5B
P 4400 7200
F 0 "P7" H 4400 7400 50  0000 C CNN
F 1 "SELF_PROG" V 4500 7200 50  0000 C CNN
F 2 "Local:Pin_Header_Straight_1x03" H 4400 7200 60  0001 C CNN
F 3 "" H 4400 7200 60  0000 C CNN
	1    4400 7200
	1    0    0    1   
$EndComp
Text GLabel 4100 7300 0    47   Input ~ 0
PROG_RESET
Text GLabel 4100 7200 0    47   Input ~ 0
ISP_RESET
Text GLabel 4100 7100 0    47   Input ~ 0
~RESET
Wire Wire Line
	4200 7100 4100 7100
Wire Wire Line
	4200 7200 4100 7200
Wire Wire Line
	4200 7300 4100 7300
NoConn ~ 5400 2300
NoConn ~ 5400 1700
$Comp
L CONN_02X04 P8
U 1 1 5735827E
P 2450 3350
F 0 "P8" H 2450 3600 50  0000 C CNN
F 1 "HVSP" H 2450 3100 50  0000 C CNN
F 2 "Local:Pin_Header_Straight_2x04" H 2450 2150 60  0001 C CNN
F 3 "" H 2450 2150 60  0000 C CNN
	1    2450 3350
	1    0    0    -1  
$EndComp
$Comp
L ATTINY13-SS P9
U 1 1 5735B508
P 1150 2400
F 0 "P9" H 350 2800 40  0000 C CNN
F 1 "ATTINY13-SS" H 1800 2000 40  0000 C CNN
F 2 "Local:SOIC-8_3.9x4.9mm_Pitch1.27mm" H 1750 2400 35  0001 C CIN
F 3 "" H 350 2750 60  0000 C CNN
	1    1150 2400
	0    -1   -1   0   
$EndComp
Text GLabel 2800 3200 2    47   Input ~ 0
T13_SDI
Text GLabel 2800 3300 2    47   Input ~ 0
T13_SDO
Text GLabel 2800 3400 2    47   Input ~ 0
T13_SCI
Text GLabel 2800 3500 2    47   Input ~ 0
T13_SII
Wire Wire Line
	2800 3400 2700 3400
Text GLabel 2100 3200 0    47   Input ~ 0
T13_RES
Text GLabel 2100 3300 0    47   Input ~ 0
T13_VCC
Text GLabel 2100 3500 0    47   Input ~ 0
T13_GND
Text GLabel 900  1300 1    47   Input ~ 0
T13_VCC
Text GLabel 1400 1300 1    47   Input ~ 0
T13_GND
Wire Wire Line
	2200 3400 2100 3400
Wire Wire Line
	2200 3500 2100 3500
Wire Wire Line
	2200 3200 2100 3200
Wire Wire Line
	2200 3300 2100 3300
Wire Wire Line
	2800 3200 2700 3200
Wire Wire Line
	2800 3300 2700 3300
Wire Wire Line
	2800 3500 2700 3500
Wire Wire Line
	900  1300 900  1400
Wire Wire Line
	1400 1300 1400 1400
Text GLabel 1200 3500 3    47   Input ~ 0
T13_SCI
Text GLabel 1400 3500 3    47   Input ~ 0
T13_RES
Text GLabel 1100 3500 3    47   Input ~ 0
T13_SDO
Text GLabel 1000 3500 3    47   Input ~ 0
T13_SII
Text GLabel 900  3500 3    47   Input ~ 0
T13_SDI
Wire Wire Line
	900  3400 900  3500
Wire Wire Line
	1000 3400 1000 3500
Wire Wire Line
	1100 3400 1100 3500
Wire Wire Line
	1200 3400 1200 3500
Wire Wire Line
	1300 3400 1300 3500
Wire Wire Line
	1400 3400 1400 3500
NoConn ~ 2100 3400
NoConn ~ 1300 3500
Text GLabel 3200 2600 0    47   Input ~ 0
AREF
$Comp
L C C13
U 1 1 573787F7
P 2300 2250
F 0 "C13" H 2325 2350 50  0000 L CNN
F 1 "100n" H 2325 2150 50  0000 L CNN
F 2 "Local:C_0603" H 2338 2100 30  0001 C CNN
F 3 "" H 2300 2250 60  0000 C CNN
	1    2300 2250
	1    0    0    -1  
$EndComp
$Comp
L GND #PWR14
U 1 1 573787FD
P 2300 2500
F 0 "#PWR14" H 2300 2250 50  0001 C CNN
F 1 "GND" H 2300 2350 50  0000 C CNN
F 2 "" H 2300 2500 60  0000 C CNN
F 3 "" H 2300 2500 60  0000 C CNN
	1    2300 2500
	1    0    0    -1  
$EndComp
Wire Wire Line
	2300 2400 2300 2500
Wire Wire Line
	2300 2100 2300 2000
Text GLabel 2300 2000 1    47   Input ~ 0
AREF
$EndSCHEMATC
